hello_verilog/ddlab4mux/mux_out.vcd
$date
	Fri Sep 22 12:43:17 2023
$end
$version
	Icarus Verilog
$end
$timescale
	1s
$end
$scope module testbench $end
$var wire 1 ! out $end
$var reg 8 " t_in [7:0] $end
$var reg 3 # t_select [2:0] $end
$scope module m1 $end
$var wire 8 $ in [7:0] $end
$var wire 3 % select [2:0] $end
$var wire 1 ! out $end
$var wire 2 & m [1:0] $end
$scope module m1 $end
$var wire 1 ' a1 $end
$var wire 1 ( a2 $end
$var wire 1 ) a3 $end
$var wire 1 * a4 $end
$var wire 4 + in [3:0] $end
$var wire 1 , out $end
$var wire 2 - select [1:0] $end
$var wire 1 . n_s1 $end
$var wire 1 / n_s0 $end
$upscope $end
$scope module m2 $end
$var wire 1 0 a1 $end
$var wire 1 1 a2 $end
$var wire 1 2 a3 $end
$var wire 1 3 a4 $end
$var wire 4 4 in [3:0] $end
$var wire 1 5 out $end
$var wire 2 6 select [1:0] $end
$var wire 1 7 n_s1 $end
$var wire 1 8 n_s0 $end
$upscope $end
$scope module m3 $end
$var wire 1 9 a1 $end
$var wire 1 : a2 $end
$var wire 2 ; in [1:0] $end
$var wire 1 ! out $end
$var wire 1 < select $end
$var wire 1 = n_s $end
$upscope $end
$upscope $end
$upscope $end
$enddefinitions $end
#0
$dumpvars
1=
0<
b1 ;
0:
19
18
17
b0 6
15
b1 4
03
02
01
10
1/
1.
b0 -
0,
b0 +
0*
0)
0(
0'
b1 &
b0 %
b1 $
b0 #
b1 "
1!
$end
#10
00
11
0/
08
b1 -
b1 6
b10 4
b1 #
b1 %
b10 "
b10 $
#20
01
12
1/
0.
18
07
b10 -
b10 6
b100 4
b10 #
b10 %
b100 "
b100 $
#30
02
13
0/
08
b11 -
b11 6
b1000 4
b11 #
b11 %
b1000 "
b1000 $
#40
1:
1,
b10 &
b10 ;
05
1!
1'
03
1/
1.
18
17
09
b0 -
b0 6
0=
1<
b1 +
b0 4
b100 #
b100 %
b10000 "
b10000 $
#50
0'
1(
0/
08
b1 -
b1 6
b10 +
b101 #
b101 %
b100000 "
b100000 $
#60
0(
1)
1/
0.
18
07
b10 -
b10 6
b100 +
b110 #
b110 %
b1000000 "
b1000000 $
#70
0)
1*
0/
08
b11 -
b11 6
b1000 +
b111 #
b111 %
b10000000 "
b10000000 $
#80
0*
0!
1'
1/
1.
18
17
0:
b0 -
b0 6
1=
0<
b1111 +
b1110 4
b0 #
b0 %
b11111110 "
b11111110 $
#90
0'
1(
0/
08
b1 -
b1 6
b1101 4
b1 #
b1 %
b11111101 "
b11111101 $
#100
0(
1)
1/
0.
18
07
b10 -
b10 6
b1011 4
b10 #
b10 %
b11111011 "
b11111011 $
#110
0)
1*
0/
08
b11 -
b11 6
b111 4
b11 #
b11 %
b11110111 "
b11110111 $
#120
0,
b1 &
b1 ;
15
0*
10
0!
1/
1.
18
17
0:
b0 -
b0 6
0=
1<
b1110 +
b1111 4
b100 #
b100 %
b11101111 "
b11101111 $
#130
00
11
0/
08
b1 -
b1 6
b1101 +
b101 #
b101 %
b11011111 "
b11011111 $
#140
01
12
1/
0.
18
07
b10 -
b10 6
b1011 +
b110 #
b110 %
b10111111 "
b10111111 $
#150
02
13
0/
08
b11 -
b11 6
b111 +
b111 #
b111 %
b1111111 "
b1111111 $
